{
  "version": "0.3.14-fixed",
  "steps": [
    {
      "tag": "UpdateArgument",
      "location": {
        "tag": "Source",
        "source": "db"
      },
      "argument": "provider",
      "newValue": "\"postgresql\""
    },
    {
      "tag": "UpdateArgument",
      "location": {
        "tag": "Source",
        "source": "db"
      },
      "argument": "url",
      "newValue": "env(\"POSTGRESQL_URL\")"
    }
  ]
}