{
  "version": "0.3.14-fixed",
  "steps": [
    {
      "tag": "CreateField",
      "model": "Contact",
      "field": "contactOf",
      "type": "User",
      "arity": "Required"
    },
    {
      "tag": "CreateField",
      "model": "Email",
      "field": "emailOf",
      "type": "Contact",
      "arity": "Required"
    },
    {
      "tag": "CreateField",
      "model": "Phone",
      "field": "PhoneOf",
      "type": "Contact",
      "arity": "Required"
    }
  ]
}